FPR4/SkNiKr/meritve/ENA/CSVC150.csv

Record Length,Analog:7000
Sample Interval,CH:0.0000001000000
Vertical Units,CH1:V CH2:V CH3:V CH4:V,,,
Vertical Scale,CH1:+2.000000E-03 CH2:+2.000000E-03 CH3:+1.000000E+00 CH4:+1.000000E+00,,,
Vertical Offset,CH1:-7.200000E-04 CH2:-5.400000E-03 CH3:+0.000000E+00 CH4:+0.000000E+00,,,
Horizontal Units,us,,,
Horizontal Scale,50.0000000000,,,
Model Number,SDS1104X-E,,,
Serial Number,SDSMMEBX4R2044,,,
Software Version,8.1.6.1.35R2,,,
Source,CH1,CH2,CH3,CH4
Second,Volt,Volt,Volt,Volt
-2.020000E-04,+4.800000E-04,+3.600004E-04,+4.000000E-02,-2.000000E+00
-2.019000E-04,+4.800000E-04,+2.800003E-04,+4.000000E-02,-2.000000E+00
-2.018000E-04,+4.800000E-04,+2.800003E-04,+4.000000E-02,-2.000000E+00
-2.017000E-04,+4.800000E-04,+3.600004E-04,+0.000000E+00,-2.000000E+00
-2.016000E-04,+3.200000E-04,+2.800003E-04,+4.000000E-02,-2.000000E+00
-2.015000E-04,+5.600000E-04,+3.600004E-04,+0.000000E+00,-2.000000E+00
-2.014000E-04,+4.800000E-04,+2.000001E-04,+4.000000E-02,-2.000000E+00
-2.013000E-04,+4.800000E-04,+3.600004E-04,+4.000000E-02,-2.000000E+00
-2.012000E-04,+7.200000E-04,+3.600004E-04,+4.000000E-02,-2.000000E+00
-2.011000E-04,+5.600000E-04,+3.600004E-04,+4.000000E-02,-2.000000E+00
-2.010000E-04,+4.000000E-04,+3.600004E-04,+0.000000E+00,-2.000000E+00
-2.009000E-04,+5.600000E-04,+3.600004E-04,+0.000000E+00,-2.000000E+00
-2.008000E-04,+4.000000E-04,+2.000001E-04,+4.000000E-02,-2.000000E+00
-2.007000E-04,+7.200000E-04,+4.400001E-04,+0.000000E+00,-2.000000E+00
-2.006000E-04,+5.600000E-04,+2.800003E-04,+0.000000E+00,-2.000000E+00
-2.005000E-04,+4.000000E-04,+2.800003E-04,+0.000000E+00,-2.000000E+00
-2.004000E-04,+4.000000E-04,+3.600004E-04,+4.000000E-02,-2.000000E+00
-2.003000E-04,+6.400000E-04,+3.600004E-04,+0.000000E+00,-2.000000E+00
-2.002000E-04,+3.200000E-04,+2.000001E-04,+4.000000E-02,-2.000000E+00
-2.001000E-04,+5.600000E-04,+3.600004E-04,+0.000000E+00,-2.000000E+00
-2.000000E-04,+5.600000E-04,+2.800003E-04,+4.000000E-02,-2.000000E+00
-1.999000E-04,+7.200000E-04,+3.600004E-04,+4.000000E-02,-2.000000E+00
-1.998000E-04,+5.600000E-04,+3.600004E-04,+0.000000E+00,-2.000000E+00
-1.997000E-04,+4.800000E-04,+2.800003E-04,+4.000000E-02,-2.000000E+00
-1.996000E-04,+4.800000E-04,+2.800003E-04,+4.000000E-02,-2.000000E+00
-1.995000E-04,+6.400000E-04,+4.400001E-04,+4.000000E-02,-2.000000E+00
-1.994000E-04,+5.600000E-04,+2.800003E-04,+0.000000E+00,-2.000000E+00
-1.993000E-04,+5.600000E-04,+4.400001E-04,+0.000000E+00,-2.000000E+00
-1.992000E-04,+6.400000E-04,+4.400001E-04,+4.000000E-02,-2.000000E+00
-1.991000E-04,+6.400000E-04,+3.600004E-04,+4.000000E-02,-2.000000E+00
-1.990000E-04,+4.800000E-04,+3.600004E-04,+0.000000E+00,-2.000000E+00
-1.989000E-04,+8.000000E-04,+3.600004E-04,+0.000000E+00,-2.000000E+00
-1.988000E-04,+2.400000E-04,+2.000001E-04,+4.000000E-02,-2.000000E+00
-1.987000E-04,+8.000000E-04,+3.600004E-04,+0.000000E+00,-2.000000E+00
-1.986000E-04,+4.800000E-04,+3.600004E-04,+4.000000E-02,-2.000000E+00
-1.985000E-04,+5.600000E-04,+2.800003E-04,+0.000000E+00,-2.000000E+00
-1.984000E-04,+5.600000E-04,+4.400001E-04,+4.000000E-02,-2.000000E+00
-1.983000E-04,+5.600000E-04,+4.400001E-04,+0.000000E+00,-2.000000E+00
-1.982000E-04,+5.600000E-04,+3.600004E-04,+4.000000E-02,-2.000000E+00
-1.981000E-04,+4.000000E-04,+3.600004E-04,+0.000000E+00,-2.000000E+00
-1.980000E-04,+4.800000E-04,+2.800003E-04,+4.000000E-02,-2.000000E+00
-1.979000E-04,+4.800000E-04,+2.800003E-04,+4.000000E-02,-2.000000E+00
-1.978000E-04,+4.800000E-04,+2.800003E-04,+4.000000E-02,-2.000000E+00
-1.977000E-04,+4.800000E-04,+2.800003E-04,+4.000000E-02,-2.000000E+00
-1.976000E-04,+4.800000E-04,+2.800003E-04,+4.000000E-02,-2.000000E+00
-1.975000E-04,+4.000000E-04,+3.600004E-04,+4.000000E-02,-2.000000E+00
-1.974000E-04,+4.800000E-04,+3.600004E-04,+0.000000E+00,-2.000000E+00
-1.973000E-04,+5.600000E-04,+2.800003E-04,+0.000000E+00,-2.000000E+00
-1.972000E-04,+5.600000E-04,+2.800003E-04,+0.000000E+00,-2.000000E+00
-1.971000E-04,+4.800000E-04,+2.800003E-04,+4.000000E-02,-2.000000E+00
-1.970000E-04,+4.800000E-04,+3.600004E-04,+0.000000E+00,-2.000000E+00
-1.969000E-04,+5.600000E-04,+2.800003E-04,+0.000000E+00,-2.000000E+00
-1.968000E-04,+5.600000E-04,+2.800003E-04,+4.000000E-02,-2.000000E+00
-1.967000E-04,+5.600000E-04,+3.600004E-04,+0.000000E+00,-2.000000E+00
-1.966000E-04,+6.400000E-04,+4.400001E-04,+0.000000E+00,-2.000000E+00
-1.965000E-04,+5.600000E-04,+3.600004E-04,+4.000000E-02,-2.000000E+00
-1.964000E-04,+7.200000E-04,+4.400001E-04,+4.000000E-02,-2.000000E+00
-1.963000E-04,+5.600000E-04,+3.600004E-04,+4.000000E-02,-2.000000E+00
-1.962000E-04,+8.800000E-04,+4.400001E-04,+4.000000E-02,-2.000000E+00
-1.961000E-04,+4.000000E-04,+3.600004E-04,+4.000000E-02,-2.000000E+00
-1.960000E-04,+5.600000E-04,+2.800003E-04,+0.000000E+00,-2.000000E+00
-1.959000E-04,+3.200000E-04,+2.800003E-04,+4.000000E-02,-2.000000E+00
-1.958000E-04,+6.400000E-04,+3.600004E-04,+4.000000E-02,-2.000000E+00
-1.957000E-04,+5.600000E-04,+3.600004E-04,+4.000000E-02,-2.000000E+00
-1.956000E-04,+5.600000E-04,+4.400001E-04,+4.000000E-02,-2.000000E+00
-1.955000E-04,+4.800000E-04,+3.600004E-04,+4.000000E-02,-2.000000E+00
-1.954000E-04,+5.600000E-04,+2.800003E-04,+0.000000E+00,-2.000000E+00
-1.953000E-04,+4.800000E-04,+2.000001E-04,+4.000000E-02,-2.000000E+00
-1.952000E-04,+5.600000E-04,+2.800003E-04,+0.000000E+00,-2.000000E+00
-1.951000E-04,+4.000000E-04,+2.800003E-04,+4.000000E-02,-2.000000E+00
-1.950000E-04,+4.800000E-04,+3.600004E-04,+4.000000E-02,-2.000000E+00
-1.949000E-04,+6.400000E-04,+3.600004E-04,+4.000000E-02,-2.000000E+00
-1.948000E-04,+6.400000E-04,+2.800003E-04,+4.000000E-02,-2.000000E+00
-1.947000E-04,+4.000000E-04,+2.800003E-04,+4.000000E-02,-2.000000E+00
-1.946000E-04,+5.600000E-04,+3.600004E-04,+0.000000E+00,-2.000000E+00
-1.945000E-04,+4.000000E-04,+2.800003E-04,+0.000000E+00,-2.000000E+00
-1.944000E-04,+5.600000E-04,+3.600004E-04,+4.000000E-02,-2.000000E+00
-1.943000E-04,+4.000000E-04,+2.000001E-04,+4.000000E-02,-2.000000E+00
-1.942000E-04,+4.000000E-04,+2.800003E-04,+4.000000E-02,-2.000000E+00
-1.941000E-04,+4.000000E-04,+3.600004E-04,+0.000000E+00,-2.000000E+00
-1.940000E-04,+4.800000E-04,+3.600004E-04,+4.000000E-02,-2.000000E+00
-1.939000E-04,+2.400000E-04,+2.000001E-04,+4.000000E-02,-2.000000E+00
-1.938000E-04,+6.400000E-04,+2.800003E-04,+4.000000E-02,-2.000000E+00
-1.937000E-04,+6.400000E-04,+2.800003E-04,+0.000000E+00,-2.000000E+00
-1.936000E-04,+6.400000E-04,+3.600004E-04,+4.000000E-02,-2.000000E+00
-1.935000E-04,+4.000000E-04,+2.800003E-04,+4.000000E-02,-2.000000E+00
-1.934000E-04,+4.000000E-04,+2.800003E-04,+4.000000E-02,-2.000000E+00
-1.933000E-04,+6.400000E-04,+2.800003E-04,+4.000000E-02,-2.000000E+00
-1.932000E-04,+5.600000E-04,+3.600004E-04,+4.000000E-02,-2.000000E+00
-1.931000E-04,+4.800000E-04,+2.000001E-04,+4.000000E-02,-2.000000E+00
-1.930000E-04,+5.600000E-04,+3.600004E-04,+4.000000E-02,-2.000000E+00
-1.929000E-04,+5.600000E-04,+4.400001E-04,+4.000000E-02,-2.000000E+00
-1.928000E-04,+5.600000E-04,+3.600004E-04,+4.000000E-02,-2.000000E+00
-1.927000E-04,+5.600000E-04,+2.800003E-04,+4.000000E-02,-2.000000E+00
-1.926000E-04,+5.600000E-04,+3.600004E-04,+4.000000E-02,-2.000000E+00
-1.925000E-04,+6.400000E-04,+2.800003E-04,+4.000000E-02,-2.000000E+00
-1.924000E-04,+4.800000E-04,+3.600004E-04,+4.000000E-02,-2.000000E+00
-1.923000E-04,+3.200000E-04,+2.800003E-04,+0.000000E+00,-2.000000E+00
-1.922000E-04,+3.200000E-04,+2.800003E-04,+4.000000E-02,-2.000000E+00
-1.921000E-04,+5.600000E-04,+3.600004E-04,+0.000000E+00,-2.000000E+00
-1.920000E-04,+5.600000E-04,+2.800003E-04,+4.000000E-02,-2.000000E+00
-1.919000E-04,+4.000000E-04,+2.000001E-04,+4.000000E-02,-2.000000E+00
-1.918000E-04,+4.000000E-04,+2.800003E-04,+4.000000E-02,-2.000000E+00
-1.917000E-04,+5.600000E-04,+2.800003E-04,+4.000000E-02,-2.000000E+00
-1.916000E-04,+4.800000E-04,+2.800003E-04,+4.000000E-02,-2.000000E+00
-1.915000E-04,+4.800000E-04,+3.600004E-04,+0.000000E+00,-2.000000E+00
-1.914000E-04,+4.800000E-04,+2.000001E-04,+4.000000E-02,-2.000000E+00
-1.913000E-04,+4.800000E-04,+3.600004E-04,+4.000000E-02,-2.000000E+00
-1.912000E-04,+5.600000E-04,+3.600004E-04,+4.000000E-02,-2.000000E+00
-1.911000E-04,+5.600000E-04,+4.400001E-04,+0.000000E+00,-2.000000E+00
-1.910000E-04,+5.600000E-04,+2.800003E-04,+0.000000E+00,-2.000000E+00
-1.909000E-04,+6.400000E-04,+3.600004E-04,+0.000000E+00,-2.000000E+00
-1.908000E-04,+6.400000E-04,+2.800003E-04,+4.000000E-02,-2.000000E+00
-1.907000E-04,+4.800000E-04,+3.600004E-04,+4.000000E-02,-2.000000E+00
-1.906000E-04,+8.800000E-04,+3.600004E-04,+4.000000E-02,-2.000000E+00
-1.905000E-04,+4.000000E-04,+3.600004E-04,+4.000000E-02,-2.000000E+00
-1.904000E-04,+4.800000E-04,+3.600004E-04,+4.000000E-02,-2.000000E+00
-1.903000E-04,+4.800000E-04,+3.600004E-04,+4.000000E-02,-2.000000E+00
-1.902000E-04,+5.600000E-04,+2.800003E-04,+4.000000E-02,-2.000000E+00
-1.901000E-04,+4.800000E-04,+3.600004E-04,+4.000000E-02,-2.000000E+00
-1.900000E-04,+3.200000E-04,+2.800003E-04,+4.000000E-02,-2.000000E+00
-1.899000E-04,+4.800000E-04,+2.800003E-04,+4.000000E-02,-2.000000E+00
-1.898000E-04,+4.800000E-04,+2.800003E-04,+4.000000E-02,-2.000000E+00
-1.897000E-04,+4.800000E-04,+2.000001E-04,+0.000000E+00,-2.000000E+00
-1.896000E-04,+3.200000E-04,+2.800003E-04,+0.000000E+00,-2.000000E+00
-1.895000E-04,+4.800000E-04,+3.600004E-04,+4.000000E-02,-2.000000E+00
-1.894000E-04,+5.600000E-04,+2.800003E-04,+0.000000E+00,-2.000000E+00
-1.893000E-04,+4.800000E-04,+2.800003E-04,+0.000000E+00,-2.000000E+00
-1.892000E-04,+4.800000E-04,+3.600004E-04,+4.000000E-02,-2.000000E+00
-1.891000E-04,+5.600000E-04,+3.600004E-04,+4.000000E-02,-2.000000E+00
-1.890000E-04,+6.400000E-04,+3.600004E-04,+0.000000E+00,-2.000000E+00
-1.889000E-04,+5.600000E-04,+3.600004E-04,+0.000000E+00,-2.000000E+00
-1.888000E-04,+5.600000E-04,+2.800003E-04,+4.000000E-02,-2.000000E+00
-1.887000E-04,+4.800000E-04,+3.600004E-04,+0.000000E+00,-2.000000E+00
-1.886000E-04,+5.600000E-04,+3.600004E-04,+4.000000E-02,-2.000000E+00
-1.885000E-04,+4.800000E-04,+2.800003E-04,+4.000000E-02,-2.000000E+00
-1.884000E-04,+2.400000E-04,+3.600004E-04,+4.000000E-02,-2.000000E+00
-1.883000E-04,+6.400000E-04,+3.600004E-04,+4.000000E-02,-2.000000E+00
-1.882000E-04,+5.600000E-04,+3.600004E-04,+4.000000E-02,-2.000000E+00
-1.881000E-04,+4.000000E-04,+2.000001E-04,+4.000000E-02,-2.000000E+00
-1.880000E-04,+4.000000E-04,+2.800003E-04,+4.000000E-02,-2.000000E+00
-1.879000E-04,+6.400000E-04,+2.800003E-04,+0.000000E+00,-2.000000E+00
-1.878000E-04,+6.400000E-04,+4.400001E-04,+4.000000E-02,-2.000000E+00
-1.877000E-04,+4.800000E-04,+3.600004E-04,+4.000000E-02,-2.000000E+00
-1.876000E-04,+3.200000E-04,+4.400001E-04,+4.000000E-02,-2.000000E+00
-1.875000E-04,+7.200000E-04,+4.400001E-04,+4.000000E-02,-2.000000E+00
-1.874000E-04,+4.800000E-04,+3.600004E-04,+0.000000E+00,-2.000000E+00
-1.873000E-04,+4.800000E-04,+2.000001E-04,+0.000000E+00,-2.000000E+00
-1.872000E-04,+4.000000E-04,+3.600004E-04,+0.000000E+00,-2.000000E+00
-1.871000E-04,+4.000000E-04,+3.600004E-04,+4.000000E-02,-2.000000E+00
-1.870000E-04,+4.000000E-04,+3.600004E-04,+4.000000E-02,-2.000000E+00
-1.869000E-04,+5.600000E-04,+2.800003E-04,+4.000000E-02,-2.000000E+00
-1.868000E-04,+4.000000E-04,+2.800003E-04,+4.000000E-02,-2.000000E+00
-1.867000E-04,+8.000000E-04,+4.400001E-04,+4.000000E-02,-2.000000E+00
-1.866000E-04,+5.600000E-04,+4.400001E-04,+4.000000E-02,-2.000000E+00
-1.865000E-04,+6.400000E-04,+3.600004E-04,+4.000000E-02,-2.000000E+00
-1.864000E-04,+4.000000E-04,+3.600004E-04,+4.000000E-02,-2.000000E+00
-1.863000E-04,+6.400000E-04,+2.800003E-04,+4.000000E-02,-2.000000E+00
-1.862000E-04,+4.000000E-04,+2.800003E-04,+4.000000E-02,-2.000000E+00
-1.861000E-04,+3.200000E-04,+2.800003E-04,+0.000000E+00,-2.000000E+00
-1.860000E-04,+6.400000E-04,+3.600004E-04,+4.000000E-02,-2.000000E+00
-1.859000E-04,+4.800000E-04,+3.600004E-04,+4.000000E-02,-2.000000E+00
-1.858000E-04,+7.200000E-04,+5.200002E-04,+4.000000E-02,-2.000000E+00
-1.857000E-04,+6.400000E-04,+5.200002E-04,+4.000000E-02,-2.000000E+00
-1.856000E-04,+6.400000E-04,+5.200002E-04,+4.000000E-02,-2.000000E+00
-1.855000E-04,+8.000000E-04,+3.600004E-04,+4.000000E-02,-2.000000E+00
-1.854000E-04,+5.600000E-04,+2.800003E-04,+4.000000E-02,-2.000000E+00
-1.853000E-04,+3.200000E-04,+3.600004E-04,+0.000000E+00,-2.000000E+00
-1.852000E-04,+5.600000E-04,+3.600004E-04,+4.000000E-02,-2.000000E+00
-1.851000E-04,+5.600000E-04,+3.600004E-04,+4.000000E-02,-2.000000E+00
-1.850000E-04,+4.800000E-04,+2.800003E-04,+4.000000E-02,-2.000000E+00
-1.849000E-04,+4.800000E-04,+3.600004E-04,+4.000000E-02,-2.000000E+00
-1.848000E-04,+6.400000E-04,+3.600004E-04,+4.000000E-02,-2.000000E+00
-1.847000E-04,+4.000000E-04,+4.400001E-04,+4.000000E-02,-2.000000E+00
-1.846000E-04,+7.200000E-04,+3.600004E-04,+4.000000E-02,-2.000000E+00
-1.845000E-04,+4.000000E-04,+2.800003E-04,+4.000000E-02,-2.000000E+00
-1.844000E-04,+6.400000E-04,+4.400001E-04,+4.000000E-02,-2.000000E+00
-1.843000E-04,+5.600000E-04,+3.600004E-04,+4.000000E-02,-2.000000E+00
-1.842000E-04,+3.200000E-04,+2.800003E-04,+4.000000E-02,-2.000000E+00
-1.841000E-04,+4.000000E-04,+3.600004E-04,+0.000000E+00,-2.000000E+00
-1.840000E-04,+5.600000E-04,+2.800003E-04,+4.000000E-02,-2.000000E+00
-1.839000E-04,+4.800000E-04,+2.800003E-04,+4.000000E-02,-2.000000E+00
-1.838000E-04,+4.000000E-04,+2.800003E-04,+4.000000E-02,-2.000000E+00
-1.837000E-04,+5.600000E-04,+2.000001E-04,+4.000000E-02,-2.000000E+00
-1.836000E-04,+3.200000E-04,+2.800003E-04,+4.000000E-02,-2.000000E+00
-1.835000E-04,+5.600000E-04,+2.000001E-04,+4.000000E-02,-2.000000E+00
-1.834000E-04,+8.000003E-05,+1.200004E-04,+4.000000E-02,-2.000000E+00
-1.833000E-04,+4.800000E-04,+2.000001E-04,+4.000000E-02,-2.000000E+00
-1.832000E-04,+3.200000E-04,+2.000001E-04,+4.000000E-02,-2.000000E+00
-1.831000E-04,+4.800000E-04,+2.000001E-04,+4.000000E-02,-2.000000E+00
-1.830000E-04,+2.400000E-04,+3.600004E-04,+0.000000E+00,-2.000000E+00
-1.829000E-04,+4.800000E-04,+3.600004E-04,+4.000000E-02,-2.000000E+00
-1.828000E-04,+5.600000E-04,+3.600004E-04,+4.000000E-02,-2.000000E+00
-1.827000E-04,+4.800000E-04,+3.600004E-04,+4.000000E-02,-2.000000E+00
-1.826000E-04,+4.000000E-04,+2.000001E-04,+4.000000E-02,-2.000000E+00
-1.825000E-04,+5.600000E-04,+3.600004E-04,+4.000000E-02,-2.000000E+00
-1.824000E-04,+4.800000E-04,+3.600004E-04,+4.000000E-02,-2.000000E+00
-1.823000E-04,+5.600000E-04,+3.600004E-04,+4.000000E-02,-1.960000E+00
-1.822000E-04,+5.600000E-04,+2.800003E-04,+4.000000E-02,-2.000000E+00
-1.821000E-04,+6.400000E-04,+3.600004E-04,+4.000000E-02,-2.000000E+00
-1.820000E-04,+5.600000E-04,+2.800003E-04,+4.000000E-02,-2.000000E+00
-1.819000E-04,+4.800000E-04,+2.800003E-04,+4.000000E-02,-2.000000E+00
-1.818000E-04,+4.000000E-04,+2.800003E-04,+4.000000E-02,-2.000000E+00
-1.817000E-04,+4.800000E-04,+2.000001E-04,+4.000000E-02,-2.000000E+00
-1.816000E-04,+4.000000E-04,+2.800003E-04,+4.000000E-02,-2.000000E+00
-1.815000E-04,+3.200000E-04,+2.800003E-04,+4.000000E-02,-2.000000E+00
-1.814000E-04,+1.600001E-04,+2.000001E-04,+4.000000E-02,-2.000000E+00
-1.813000E-04,+5.600000E-04,+4.400001E-04,+4.000000E-02,-2.000000E+00
-1.812000E-04,+4.000000E-04,+2.800003E-04,+0.000000E+00,-2.000000E+00
-1.811000E-04,+5.600000E-04,+2.800003E-04,+0.000000E+00,-2.000000E+00
-1.810000E-04,+3.200000E-04,+3.600004E-04,+4.000000E-02,-2.000000E+00
-1.809000E-04,+5.600000E-04,+2.800003E-04,+0.000000E+00,-2.000000E+00
-1.808000E-04,+5.600000E-04,+2.000001E-04,+4.000000E-02,-2.000000E+00
-1.807000E-04,+4.800000E-04,+3.600004E-04,+4.000000E-02,-2.000000E+00
-1.806000E-04,+5.600000E-04,+3.600004E-04,+4.000000E-02,-2.000000E+00
-1.805000E-04,+7.200000E-04,+3.600004E-04,+4.000000E-02,-2.000000E+00
-1.804000E-04,+4.800000E-04,+4.400001E-04,+4.000000E-02,-2.000000E+00
-1.803000E-04,+4.800000E-04,+3.600004E-04,+4.000000E-02,-1.960000E+00
-1.802000E-04,+6.400000E-04,+4.400001E-04,+0.000000E+00,-2.000000E+00
-1.801000E-04,+5.600000E-04,+3.600004E-04,+0.000000E+00,-2.000000E+00
-1.800000E-04,+5.600000E-04,+2.800003E-04,+4.000000E-02,-2.000000E+00
-1.799000E-04,+3.200000E-04,+2.800003E-04,+0.000000E+00,-2.000000E+00
-1.798000E-04,+4.000000E-04,+2.800003E-04,+4.000000E-02,-2.000000E+00
-1.797000E-04,+3.200000E-04,+1.200004E-04,+0.000000E+00,-2.000000E+00
-1.796000E-04,+5.600000E-04,+2.800003E-04,+0.000000E+00,-2.000000E+00
-1.795000E-04,+4.000000E-04,+2.800003E-04,+4.000000E-02,-2.000000E+00
-1.794000E-04,+7.200000E-04,+3.600004E-04,+4.000000E-02,-2.000000E+00
-1.793000E-04,+5.600000E-04,+3.600004E-04,+4.000000E-02,-2.000000E+00
-1.792000E-04,+5.600000E-04,+3.600004E-04,+0.000000E+00,-2.000000E+00
-1.791000E-04,+7.200000E-04,+2.800003E-04,+4.000000E-02,-2.000000E+00
-1.790000E-04,+4.000000E-04,+3.600004E-04,+4.000000E-02,-2.000000E+00
-1.789000E-04,+6.400000E-04,+2.000001E-04,+4.000000E-02,-2.000000E+00
-1.788000E-04,+3.200000E-04,+3.600004E-04,+4.000000E-02,-2.000000E+00
-1.787000E-04,+4.000000E-04,+3.600004E-04,+4.000000E-02,-2.000000E+00
-1.786000E-04,+4.800000E-04,+3.600004E-04,+0.000000E+00,-2.000000E+00
-1.785000E-04,+7.200000E-04,+2.800003E-04,+4.000000E-02,-2.000000E+00
-1.784000E-04,+4.800000E-04,+3.600004E-04,+4.000000E-02,-2.000000E+00
-1.783000E-04,+6.400000E-04,+2.000001E-04,+4.000000E-02,-2.000000E+00
-1.782000E-04,+5.600000E-04,+3.600004E-04,+0.000000E+00,-2.000000E+00
-1.781000E-04,+5.600000E-04,+2.800003E-04,+4.000000E-02,-2.000000E+00
-1.780000E-04,+5.600000E-04,+2.800003E-04,+0.000000E+00,-2.000000E+00
-1.779000E-04,+6.400000E-04,+2.800003E-04,+4.000000E-02,-2.000000E+00
-1.778000E-04,+6.400000E-04,+3.600004E-04,+4.000000E-02,-2.000000E+00
-1.777000E-04,+5.600000E-04,+2.800003E-04,+4.000000E-02,-2.000000E+00
-1.776000E-04,+4.800000E-04,+5.200002E-04,+4.000000E-02,-2.000000E+00
-1.775000E-04,+4.800000E-04,+3.600004E-04,+4.000000E-02,-2.000000E+00
-1.774000E-04,+6.400000E-04,+4.400001E-04,+0.000000E+00,-2.000000E+00
-1.773000E-04,+4.800000E-04,+2.800003E-04,+4.000000E-02,-2.000000E+00
-1.772000E-04,+3.200000E-04,+2.800003E-04,+4.000000E-02,-2.000000E+00
-1.771000E-04,+4.000000E-04,+2.000001E-04,+4.000000E-02,-2.000000E+00
-1.770000E-04,+4.000000E-04,+3.600004E-04,+4.000000E-02,-2.000000E+00
-1.769000E-04,+4.000000E-04,+2.000001E-04,+0.000000E+00,-2.000000E+00
-1.768000E-04,+5.600000E-04,+2.000001E-04,+4.000000E-02,-2.000000E+00
-1.767000E-04,+4.000000E-04,+2.800003E-04,+4.000000E-02,-2.000000E+00
-1.766000E-04,+8.000000E-04,+3.600004E-04,+0.000000E+00,-2.000000E+00
-1.765000E-04,+5.600000E-04,+3.600004E-04,+4.000000E-02,-2.000000E+00
-1.764000E-04,+5.600000E-04,+4.400001E-04,+4.000000E-02,-2.000000E+00
-1.763000E-04,+6.400000E-04,+2.800003E-04,+4.000000E-02,-2.000000E+00
-1.762000E-04,+5.600000E-04,+2.800003E-04,+0.000000E+00,-2.000000E+00
-1.761000E-04,+4.000000E-04,+3.600004E-04,+4.000000E-02,-2.000000E+00
-1.760000E-04,+5.600000E-04,+3.600004E-04,+4.000000E-02,-2.000000E+00
-1.759000E-04,+4.000000E-04,+4.400001E-04,+4.000000E-02,-2.000000E+00
-1.758000E-04,+4.000000E-04,+3.600004E-04,+4.000000E-02,-2.000000E+00
-1.757000E-04,+5.600000E-04,+2.800003E-04,+0.000000E+00,-2.000000E+00
-1.756000E-04,+4.000000E-04,+2.800003E-04,+4.000000E-02,-2.000000E+00
-1.755000E-04,+5.600000E-04,+3.600004E-04,+4.000000E-02,-2.000000E+00
-1.754000E-04,+6.400000E-04,+2.800003E-04,+0.000000E+00,-2.000000E+00
-1.753000E-04,+6.400000E-04,+4.400001E-04,+0.000000E+00,-2.000000E+00
-1.752000E-04,+4.800000E-04,+3.600004E-04,+4.000000E-02,-2.000000E+00
-1.751000E-04,+5.600000E-04,+3.600004E-04,+0.000000E+00,-2.000000E+00
-1.750000E-04,+3.200000E-04,+2.800003E-04,+4.000000E-02,-2.000000E+00
-1.749000E-04,+3.200000E-04,+3.600004E-04,+4.000000E-02,-2.000000E+00
-1.748000E-04,+4.000000E-04,+2.000001E-04,+0.000000E+00,-2.000000E+00
-1.747000E-04,+2.400000E-04,+2.800003E-04,+4.000000E-02,-2.000000E+00
-1.746000E-04,+1.600001E-04,+4.000030E-05,+4.000000E-02,-2.000000E+00
-1.745000E-04,+2.400000E-04,+2.000001E-04,+0.000000E+00,-2.000000E+00
-1.744000E-04,+1.600001E-04,+2.000001E-04,+4.000000E-02,-2.000000E+00
-1.743000E-04,+4.800000E-04,+2.800003E-04,+4.000000E-02,-2.000000E+00
